{
  "type": "service_account",
  "project_id": "dashboard-imb",
  "private_key_id": "f969607bec95514c298e2f906ca8c8f44ed8f3ce",
  "private_key": "-----BEGIN PRIVATE KEY-----\nMIIEvQIBADANBgkqhkiG9w0BAQEFAASCBKcwggSjAgEAAoIBAQCvdDqYjljte1XK\nt4/5ieQOpSCE4ZwX3/68gku+VZDKDZwPRtoas4tublJVXRi6gCHK13vAELRL7TQK\nUE7NQmcVFEbO20gnzB56UXnSBaIVv2dRHTofr8TB056tF5uGP165fJ/9mWaobJ6H\nWDTJAjtefSJVMoowm+KRbAfDB67ZCKrqZXa9HJZnmqbpYyZnZ6/qmnh5WwOY1aHg\n7XSP1ZM084NhAmXhAu2xk6kEb9LKSMx9X5+0m76VRYwjVSJSo0i7aQcEymGCa3wh\nBACJZD4SFReb9cfYTup2gcdqkuSRf40EeqxcprMf2UMUhhCajgNTrqJU2kBedteH\nF4GRhi7HAgMBAAECggEAP3jII91HHW5jTGkYjBkOqB+jgn7NhbOSR2bJeOsibH38\n6WfjygoO1F3Tqi76Hanxz5whmAtS9i6zB1IjF81AVldWAEpCsab9lZl4/Pntt3ld\nKnJszv66qrXgLtUd/bRaE7cad9cxVJeqx+KogdktWhLhwzl71XbnQV13912FqtyG\nF59DXufn5UaczugwAxJZ4Y/vAwAuhh3dSXM+4XITQ9zOMO/mtz5Ccbn9OgVSSqY+\nt4h7GeOvqIlYuXmoHacQtwp5YgNv9XLdSL9JY6I1MQPMqye7447IXlGrBxxsQU+/\nLmI7fuLM1I434Gc3GRB5kKO8alFt3mCAtNe1TT1XYQKBgQDskMCN1OhbJJ/qhEGT\nz3y+PTHj24hzJUBK/+Cp9j2LAsLNI0cfQ/P4srH0qxSLacwb7gh3nUmogAWg9Ook\nhUbkuGmJQJQtRVTWnu330ZzQ0S5+Kj2fiLda6msehQnTm7VYiEwysO5Mvv359dzd\nGYxYn6gg6OBeAZUEUpEKInGcIQKBgQC93jtrrXSdmGrEirJgqrwDCSo6TeUeuyhq\n3iwIBBDy9nul7EseBeDkOg3tbRrxKt7AYZD+YAkSJ9Upy1wtAyX0dVWDTOtevtZA\nULIzjb34Qx6tBWm1+wFoOHFeUur176EzTSLq4nTmgx4WSEe2jdKejI5ftd4DV2i1\n3oLC5oCt5wKBgDICD5Jr9Yp+3YdX2f0DGZ2llgxS9i9RKpwwJzAGq8/dD40J7hj/\n5m0maVQNblRiUxF8ajHPACkslwQFghGiUvA6w6SOEETZqSuNgUSn/Pxvm+Jzz38Q\nCaKgd3CGMyOWgOlsNp9oo5d5sHrMrJnYssBxT7tVP0jgEL5PLfX0fgvBAoGAV9K1\nlYb0C/l2WVb2T3Rp5tWUbMefFWnothXyM/r9hASzCPqVfFunvKmFy67N6YO06TO4\nB5GQYI+AMAbaqg9svPiRB1zK+lY3cCRjaSlFF9KkG9AHJ5/k9Lo25jRgbkXbQImL\nfy4keINppVDlqvFK3P+S036iJNWHn6g+v7wzBT0CgYEAmkLF2vXFN/ip1nrSlSaB\nMbD8DbGqpn1dNlJJOBCbiULFBz4WDHgDyiIHZDCwLvtXrGWZKE5IhnSx8E01uWAk\nmqb43nffwldhjnFT+piwUJQg35ElVAMRMGSgK2SFwHGEO9UhWP5CpZa0IptgUmLH\npoTJYGf4LQl7+jU7CvyRQEI=\n-----END PRIVATE KEY-----\n",
  "client_email": "firebase-adminsdk-1x8tg@dashboard-imb.iam.gserviceaccount.com",
  "client_id": "117708766960737520247",
  "auth_uri": "https://accounts.google.com/o/oauth2/auth",
  "token_uri": "https://oauth2.googleapis.com/token",
  "auth_provider_x509_cert_url": "https://www.googleapis.com/oauth2/v1/certs",
  "client_x509_cert_url": "https://www.googleapis.com/robot/v1/metadata/x509/firebase-adminsdk-1x8tg%40dashboard-imb.iam.gserviceaccount.com"
}
